%YAML 1.1
%TAG !u! tag:unity3d.com,2011:
--- !u!1001 &100100000
Prefab:
  m_ObjectHideFlags: 1
  serializedVersion: 2
  m_Modification:
    m_TransformParent: {fileID: 0}
    m_Modifications: []
    m_RemovedComponents: []
  m_SourcePrefab: {fileID: 0}
  m_RootGameObject: {fileID: 1336519408456460}
  m_IsPrefabAsset: 1
--- !u!1 &1024853742328718
GameObject:
  m_ObjectHideFlags: 0
  m_CorrespondingSourceObject: {fileID: 0}
  m_PrefabInternal: {fileID: 100100000}
  serializedVersion: 6
  m_Component:
  - component: {fileID: 4422747227788534}
  - component: {fileID: 8195094281073020912}
  - component: {fileID: 3664157345327218558}
  m_Layer: 31
  m_Name: Layer1
  m_TagString: Untagged
  m_Icon: {fileID: 0}
  m_NavMeshLayer: 0
  m_StaticEditorFlags: 0
  m_IsActive: 1
--- !u!1 &1336519408456460
GameObject:
  m_ObjectHideFlags: 0
  m_CorrespondingSourceObject: {fileID: 0}
  m_PrefabInternal: {fileID: 100100000}
  serializedVersion: 6
  m_Component:
  - component: {fileID: 4080543578224862}
  - component: {fileID: 2569400265791045244}
  m_Layer: 31
  m_Name: Tilemap
  m_TagString: Untagged
  m_Icon: {fileID: 0}
  m_NavMeshLayer: 0
  m_StaticEditorFlags: 0
  m_IsActive: 1
--- !u!4 &4080543578224862
Transform:
  m_ObjectHideFlags: 1
  m_CorrespondingSourceObject: {fileID: 0}
  m_PrefabInternal: {fileID: 100100000}
  m_GameObject: {fileID: 1336519408456460}
  m_LocalRotation: {x: 0, y: 0, z: 0, w: 1}
  m_LocalPosition: {x: 0, y: 0, z: 0}
  m_LocalScale: {x: 1, y: 1, z: 1}
  m_Children:
  - {fileID: 4422747227788534}
  m_Father: {fileID: 0}
  m_RootOrder: 0
  m_LocalEulerAnglesHint: {x: 0, y: 0, z: 0}
--- !u!4 &4422747227788534
Transform:
  m_ObjectHideFlags: 1
  m_CorrespondingSourceObject: {fileID: 0}
  m_PrefabInternal: {fileID: 100100000}
  m_GameObject: {fileID: 1024853742328718}
  m_LocalRotation: {x: -0, y: -0, z: -0, w: 1}
  m_LocalPosition: {x: 0, y: 0, z: 0}
  m_LocalScale: {x: 1, y: 1, z: 1}
  m_Children: []
  m_Father: {fileID: 4080543578224862}
  m_RootOrder: 0
  m_LocalEulerAnglesHint: {x: 0, y: 0, z: 0}
--- !u!114 &114367806298345604
MonoBehaviour:
  m_ObjectHideFlags: 0
  m_CorrespondingSourceObject: {fileID: 0}
  m_PrefabInternal: {fileID: 0}
  m_GameObject: {fileID: 0}
  m_Enabled: 1
  m_EditorHideFlags: 1
  m_Script: {fileID: 12395, guid: 0000000000000000e000000000000000, type: 0}
  m_Name: Palette Settings
  m_EditorClassIdentifier: 
  cellSizing: 0
--- !u!156049354 &2569400265791045244
Grid:
  m_ObjectHideFlags: 1
  m_CorrespondingSourceObject: {fileID: 0}
  m_PrefabInternal: {fileID: 100100000}
  m_GameObject: {fileID: 1336519408456460}
  m_Enabled: 1
  m_CellSize: {x: 1, y: 1, z: 0}
  m_CellGap: {x: 0, y: 0, z: 0}
  m_CellLayout: 0
  m_CellSwizzle: 0
--- !u!483693784 &3664157345327218558
TilemapRenderer:
  m_ObjectHideFlags: 1
  m_CorrespondingSourceObject: {fileID: 0}
  m_PrefabInternal: {fileID: 100100000}
  m_GameObject: {fileID: 1024853742328718}
  m_Enabled: 0
  m_CastShadows: 0
  m_ReceiveShadows: 0
  m_DynamicOccludee: 0
  m_MotionVectors: 1
  m_LightProbeUsage: 0
  m_ReflectionProbeUsage: 0
  m_RenderingLayerMask: 4294967295
  m_Materials:
  - {fileID: 10754, guid: 0000000000000000f000000000000000, type: 0}
  m_StaticBatchInfo:
    firstSubMesh: 0
    subMeshCount: 0
  m_StaticBatchRoot: {fileID: 0}
  m_ProbeAnchor: {fileID: 0}
  m_LightProbeVolumeOverride: {fileID: 0}
  m_ScaleInLightmap: 1
  m_PreserveUVs: 0
  m_IgnoreNormalsForChartDetection: 0
  m_ImportantGI: 0
  m_StitchLightmapSeams: 0
  m_SelectedEditorRenderState: 0
  m_MinimumChartSize: 4
  m_AutoUVMaxDistance: 0.5
  m_AutoUVMaxAngle: 89
  m_LightmapParameters: {fileID: 0}
  m_SortingLayerID: 0
  m_SortingLayer: 0
  m_SortingOrder: 0
  m_ChunkSize: {x: 32, y: 32, z: 32}
  m_ChunkCullingBounds: {x: 0, y: 0, z: 0}
  m_MaxChunkCount: 16
  m_MaxFrameAge: 16
  m_SortOrder: 0
  m_DetectChunkCullingBounds: 0
  m_MaskInteraction: 0
--- !u!1839735485 &8195094281073020912
Tilemap:
  m_ObjectHideFlags: 1
  m_CorrespondingSourceObject: {fileID: 0}
  m_PrefabInternal: {fileID: 100100000}
  m_GameObject: {fileID: 1024853742328718}
  m_Enabled: 1
  m_Tiles:
  - first: {x: -2, y: -6, z: 0}
    second:
      m_TileIndex: 27
      m_TileSpriteIndex: 30
      m_TileMatrixIndex: 0
      m_TileColorIndex: 0
      m_ObjectToInstantiate: {fileID: 0}
      m_TileFlags: 1
      m_ColliderType: 1
  - first: {x: -1, y: -6, z: 0}
    second:
      m_TileIndex: 28
      m_TileSpriteIndex: 28
      m_TileMatrixIndex: 0
      m_TileColorIndex: 0
      m_ObjectToInstantiate: {fileID: 0}
      m_TileFlags: 1
      m_ColliderType: 1
  - first: {x: 0, y: -6, z: 0}
    second:
      m_TileIndex: 29
      m_TileSpriteIndex: 0
      m_TileMatrixIndex: 0
      m_TileColorIndex: 0
      m_ObjectToInstantiate: {fileID: 0}
      m_TileFlags: 1
      m_ColliderType: 1
  - first: {x: 1, y: -6, z: 0}
    second:
      m_TileIndex: 33
      m_TileSpriteIndex: 33
      m_TileMatrixIndex: 0
      m_TileColorIndex: 0
      m_ObjectToInstantiate: {fileID: 0}
      m_TileFlags: 1
      m_ColliderType: 1
  - first: {x: 2, y: -6, z: 0}
    second:
      m_TileIndex: 30
      m_TileSpriteIndex: 31
      m_TileMatrixIndex: 0
      m_TileColorIndex: 0
      m_ObjectToInstantiate: {fileID: 0}
      m_TileFlags: 1
      m_ColliderType: 1
  - first: {x: -2, y: -5, z: 0}
    second:
      m_TileIndex: 23
      m_TileSpriteIndex: 27
      m_TileMatrixIndex: 0
      m_TileColorIndex: 0
      m_ObjectToInstantiate: {fileID: 0}
      m_TileFlags: 1
      m_ColliderType: 1
  - first: {x: -1, y: -5, z: 0}
    second:
      m_TileIndex: 24
      m_TileSpriteIndex: 24
      m_TileMatrixIndex: 0
      m_TileColorIndex: 0
      m_ObjectToInstantiate: {fileID: 0}
      m_TileFlags: 1
      m_ColliderType: 1
  - first: {x: 0, y: -5, z: 0}
    second:
      m_TileIndex: 25
      m_TileSpriteIndex: 25
      m_TileMatrixIndex: 0
      m_TileColorIndex: 0
      m_ObjectToInstantiate: {fileID: 0}
      m_TileFlags: 1
      m_ColliderType: 1
  - first: {x: 1, y: -5, z: 0}
    second:
      m_TileIndex: 26
      m_TileSpriteIndex: 26
      m_TileMatrixIndex: 0
      m_TileColorIndex: 0
      m_ObjectToInstantiate: {fileID: 0}
      m_TileFlags: 1
      m_ColliderType: 1
  - first: {x: 2, y: -5, z: 0}
    second:
      m_TileIndex: 31
      m_TileSpriteIndex: 32
      m_TileMatrixIndex: 0
      m_TileColorIndex: 0
      m_ObjectToInstantiate: {fileID: 0}
      m_TileFlags: 1
      m_ColliderType: 1
  - first: {x: -2, y: -4, z: 0}
    second:
      m_TileIndex: 19
      m_TileSpriteIndex: 23
      m_TileMatrixIndex: 0
      m_TileColorIndex: 0
      m_ObjectToInstantiate: {fileID: 0}
      m_TileFlags: 1
      m_ColliderType: 1
  - first: {x: -1, y: -4, z: 0}
    second:
      m_TileIndex: 20
      m_TileSpriteIndex: 20
      m_TileMatrixIndex: 0
      m_TileColorIndex: 0
      m_ObjectToInstantiate: {fileID: 0}
      m_TileFlags: 1
      m_ColliderType: 1
  - first: {x: 0, y: -4, z: 0}
    second:
      m_TileIndex: 21
      m_TileSpriteIndex: 29
      m_TileMatrixIndex: 0
      m_TileColorIndex: 3
      m_ObjectToInstantiate: {fileID: 0}
      m_TileFlags: 3
      m_ColliderType: 1
  - first: {x: 1, y: -4, z: 0}
    second:
      m_TileIndex: 22
      m_TileSpriteIndex: 22
      m_TileMatrixIndex: 0
      m_TileColorIndex: 0
      m_ObjectToInstantiate: {fileID: 0}
      m_TileFlags: 1
      m_ColliderType: 1
  - first: {x: 2, y: -4, z: 0}
    second:
      m_TileIndex: 32
      m_TileSpriteIndex: 21
      m_TileMatrixIndex: 0
      m_TileColorIndex: 0
      m_ObjectToInstantiate: {fileID: 0}
      m_TileFlags: 1
      m_ColliderType: 1
  - first: {x: -2, y: -3, z: 0}
    second:
      m_TileIndex: 15
      m_TileSpriteIndex: 19
      m_TileMatrixIndex: 0
      m_TileColorIndex: 0
      m_ObjectToInstantiate: {fileID: 0}
      m_TileFlags: 1
      m_ColliderType: 1
  - first: {x: -1, y: -3, z: 0}
    second:
      m_TileIndex: 16
      m_TileSpriteIndex: 16
      m_TileMatrixIndex: 0
      m_TileColorIndex: 0
      m_ObjectToInstantiate: {fileID: 0}
      m_TileFlags: 1
      m_ColliderType: 1
  - first: {x: 0, y: -3, z: 0}
    second:
      m_TileIndex: 17
      m_TileSpriteIndex: 17
      m_TileMatrixIndex: 0
      m_TileColorIndex: 0
      m_ObjectToInstantiate: {fileID: 0}
      m_TileFlags: 1
      m_ColliderType: 1
  - first: {x: 1, y: -3, z: 0}
    second:
      m_TileIndex: 18
      m_TileSpriteIndex: 18
      m_TileMatrixIndex: 0
      m_TileColorIndex: 0
      m_ObjectToInstantiate: {fileID: 0}
      m_TileFlags: 1
      m_ColliderType: 1
  - first: {x: 2, y: -3, z: 0}
    second:
      m_TileIndex: 17
      m_TileSpriteIndex: 17
      m_TileMatrixIndex: 0
      m_TileColorIndex: 0
      m_ObjectToInstantiate: {fileID: 0}
      m_TileFlags: 1
      m_ColliderType: 1
  - first: {x: -2, y: -2, z: 0}
    second:
      m_TileIndex: 10
      m_TileSpriteIndex: 15
      m_TileMatrixIndex: 0
      m_TileColorIndex: 0
      m_ObjectToInstantiate: {fileID: 0}
      m_TileFlags: 1
      m_ColliderType: 1
  - first: {x: -1, y: -2, z: 0}
    second:
      m_TileIndex: 11
      m_TileSpriteIndex: 11
      m_TileMatrixIndex: 0
      m_TileColorIndex: 0
      m_ObjectToInstantiate: {fileID: 0}
      m_TileFlags: 1
      m_ColliderType: 1
  - first: {x: 0, y: -2, z: 0}
    second:
      m_TileIndex: 12
      m_TileSpriteIndex: 12
      m_TileMatrixIndex: 0
      m_TileColorIndex: 0
      m_ObjectToInstantiate: {fileID: 0}
      m_TileFlags: 1
      m_ColliderType: 1
  - first: {x: 1, y: -2, z: 0}
    second:
      m_TileIndex: 13
      m_TileSpriteIndex: 13
      m_TileMatrixIndex: 0
      m_TileColorIndex: 0
      m_ObjectToInstantiate: {fileID: 0}
      m_TileFlags: 1
      m_ColliderType: 1
  - first: {x: 2, y: -2, z: 0}
    second:
      m_TileIndex: 14
      m_TileSpriteIndex: 14
      m_TileMatrixIndex: 0
      m_TileColorIndex: 0
      m_ObjectToInstantiate: {fileID: 0}
      m_TileFlags: 1
      m_ColliderType: 1
  - first: {x: -2, y: -1, z: 0}
    second:
      m_TileIndex: 5
      m_TileSpriteIndex: 10
      m_TileMatrixIndex: 0
      m_TileColorIndex: 0
      m_ObjectToInstantiate: {fileID: 0}
      m_TileFlags: 1
      m_ColliderType: 1
  - first: {x: -1, y: -1, z: 0}
    second:
      m_TileIndex: 6
      m_TileSpriteIndex: 6
      m_TileMatrixIndex: 0
      m_TileColorIndex: 0
      m_ObjectToInstantiate: {fileID: 0}
      m_TileFlags: 1
      m_ColliderType: 1
  - first: {x: 0, y: -1, z: 0}
    second:
      m_TileIndex: 7
      m_TileSpriteIndex: 7
      m_TileMatrixIndex: 0
      m_TileColorIndex: 0
      m_ObjectToInstantiate: {fileID: 0}
      m_TileFlags: 1
      m_ColliderType: 1
  - first: {x: 1, y: -1, z: 0}
    second:
      m_TileIndex: 8
      m_TileSpriteIndex: 8
      m_TileMatrixIndex: 0
      m_TileColorIndex: 0
      m_ObjectToInstantiate: {fileID: 0}
      m_TileFlags: 1
      m_ColliderType: 1
  - first: {x: 2, y: -1, z: 0}
    second:
      m_TileIndex: 9
      m_TileSpriteIndex: 9
      m_TileMatrixIndex: 0
      m_TileColorIndex: 0
      m_ObjectToInstantiate: {fileID: 0}
      m_TileFlags: 1
      m_ColliderType: 1
  - first: {x: -2, y: 0, z: 0}
    second:
      m_TileIndex: 0
      m_TileSpriteIndex: 5
      m_TileMatrixIndex: 0
      m_TileColorIndex: 0
      m_ObjectToInstantiate: {fileID: 0}
      m_TileFlags: 1
      m_ColliderType: 1
  - first: {x: -1, y: 0, z: 0}
    second:
      m_TileIndex: 1
      m_TileSpriteIndex: 1
      m_TileMatrixIndex: 0
      m_TileColorIndex: 0
      m_ObjectToInstantiate: {fileID: 0}
      m_TileFlags: 1
      m_ColliderType: 1
  - first: {x: 0, y: 0, z: 0}
    second:
      m_TileIndex: 2
      m_TileSpriteIndex: 2
      m_TileMatrixIndex: 0
      m_TileColorIndex: 0
      m_ObjectToInstantiate: {fileID: 0}
      m_TileFlags: 1
      m_ColliderType: 1
  - first: {x: 1, y: 0, z: 0}
    second:
      m_TileIndex: 3
      m_TileSpriteIndex: 3
      m_TileMatrixIndex: 0
      m_TileColorIndex: 0
      m_ObjectToInstantiate: {fileID: 0}
      m_TileFlags: 1
      m_ColliderType: 1
  - first: {x: 2, y: 0, z: 0}
    second:
      m_TileIndex: 4
      m_TileSpriteIndex: 4
      m_TileMatrixIndex: 0
      m_TileColorIndex: 0
      m_ObjectToInstantiate: {fileID: 0}
      m_TileFlags: 1
      m_ColliderType: 1
  m_AnimatedTiles: {}
  m_TileAssetArray:
  - m_RefCount: 1
    m_Data: {fileID: 11400000, guid: cc01b250d7b4f41359522250582bb2bb, type: 2}
  - m_RefCount: 1
    m_Data: {fileID: 11400000, guid: ec34b25a093864f35aef96058a245076, type: 2}
  - m_RefCount: 1
    m_Data: {fileID: 11400000, guid: cf41f9e509c2641078619a02b55f9340, type: 2}
  - m_RefCount: 1
    m_Data: {fileID: 11400000, guid: 80d2a2ccf3d2a4286badff10cf70139f, type: 2}
  - m_RefCount: 1
    m_Data: {fileID: 11400000, guid: 8d14f915ff86d471e8928f6d0b9453f7, type: 2}
  - m_RefCount: 1
    m_Data: {fileID: 11400000, guid: 52845120475ff4f499f2cf35f6d634c2, type: 2}
  - m_RefCount: 1
    m_Data: {fileID: 11400000, guid: d33aa7ce960f64f16b126ad759be6c0a, type: 2}
  - m_RefCount: 1
    m_Data: {fileID: 11400000, guid: cf4fd0fa5d91b4ca581b1409e9e4e5e9, type: 2}
  - m_RefCount: 1
    m_Data: {fileID: 11400000, guid: 8fdcf6a38106a4770a8a4672c0f01019, type: 2}
  - m_RefCount: 1
    m_Data: {fileID: 11400000, guid: b94dd03b9edeb4bb39a557439a609927, type: 2}
  - m_RefCount: 1
    m_Data: {fileID: 11400000, guid: 6595cf73be24d488ea164f7d66219241, type: 2}
  - m_RefCount: 1
    m_Data: {fileID: 11400000, guid: 6ef1da8a7351243da85785503383d5e9, type: 2}
  - m_RefCount: 1
    m_Data: {fileID: 11400000, guid: 8c5e3d32931ba4505b13cc3ca1698983, type: 2}
  - m_RefCount: 1
    m_Data: {fileID: 11400000, guid: 31854058de06643df877b57b0d871a0f, type: 2}
  - m_RefCount: 1
    m_Data: {fileID: 11400000, guid: b1f62661c447248d7a0a142c4054f448, type: 2}
  - m_RefCount: 1
    m_Data: {fileID: 11400000, guid: ac1c4100b1d494b1fb64f2e6b7350a99, type: 2}
  - m_RefCount: 1
    m_Data: {fileID: 11400000, guid: 4c5d72b8bba77498e80a04251d95d9cb, type: 2}
  - m_RefCount: 2
    m_Data: {fileID: 11400000, guid: 99502fca1de484534aaba5fc04c18665, type: 2}
  - m_RefCount: 1
    m_Data: {fileID: 11400000, guid: d50ed899b453643789c879412a99383f, type: 2}
  - m_RefCount: 1
    m_Data: {fileID: 11400000, guid: 556e206716dc9429ea775ac2e952d9d1, type: 2}
  - m_RefCount: 1
    m_Data: {fileID: 11400000, guid: d45ef15f403ff4ea19c955992101270d, type: 2}
  - m_RefCount: 1
    m_Data: {fileID: 0}
  - m_RefCount: 1
    m_Data: {fileID: 11400000, guid: 99a9d98e34bfa48c7ae1fd342344e759, type: 2}
  - m_RefCount: 1
    m_Data: {fileID: 11400000, guid: 4f7cb262504ba4219afabb2493b6c538, type: 2}
  - m_RefCount: 1
    m_Data: {fileID: 11400000, guid: 96c6102e8bcc4463897d3d7dd0b3db1a, type: 2}
  - m_RefCount: 1
    m_Data: {fileID: 11400000, guid: 55ed3fcfd9eea45a4a3df9eb7a7800b1, type: 2}
  - m_RefCount: 1
    m_Data: {fileID: 11400000, guid: ed5b7886ff80e4891be256e48355903b, type: 2}
  - m_RefCount: 1
    m_Data: {fileID: 11400000, guid: 2f3643ed27d9f4be989765295bc04705, type: 2}
  - m_RefCount: 1
    m_Data: {fileID: 11400000, guid: 46b1718d1bb404e119fb9b05998b6903, type: 2}
  - m_RefCount: 1
    m_Data: {fileID: 11400000, guid: 5d2fc080a80e64dd7847864958c7bc0f, type: 2}
  - m_RefCount: 1
    m_Data: {fileID: 11400000, guid: 9a42a97c0d9d244878e82e34ec877404, type: 2}
  - m_RefCount: 1
    m_Data: {fileID: 11400000, guid: 7aac939d9aa3f4e1fbf7d3b7deb26370, type: 2}
  - m_RefCount: 1
    m_Data: {fileID: 11400000, guid: 4687fa3a6df834a64a4ac70d10567ffc, type: 2}
  - m_RefCount: 1
    m_Data: {fileID: 11400000, guid: e39cd7ada1efb4d3db9204b1d30e15e5, type: 2}
  m_TileSpriteArray:
  - m_RefCount: 1
    m_Data: {fileID: 21300060, guid: 57bc980f7091b411a8fcac576322d01a, type: 3}
  - m_RefCount: 1
    m_Data: {fileID: 21300002, guid: 57bc980f7091b411a8fcac576322d01a, type: 3}
  - m_RefCount: 1
    m_Data: {fileID: 21300004, guid: 57bc980f7091b411a8fcac576322d01a, type: 3}
  - m_RefCount: 1
    m_Data: {fileID: 21300006, guid: 57bc980f7091b411a8fcac576322d01a, type: 3}
  - m_RefCount: 1
    m_Data: {fileID: 21300008, guid: 57bc980f7091b411a8fcac576322d01a, type: 3}
  - m_RefCount: 1
    m_Data: {fileID: 21300000, guid: 57bc980f7091b411a8fcac576322d01a, type: 3}
  - m_RefCount: 1
    m_Data: {fileID: 21300012, guid: 57bc980f7091b411a8fcac576322d01a, type: 3}
  - m_RefCount: 1
    m_Data: {fileID: 21300014, guid: 57bc980f7091b411a8fcac576322d01a, type: 3}
  - m_RefCount: 1
    m_Data: {fileID: 21300016, guid: 57bc980f7091b411a8fcac576322d01a, type: 3}
  - m_RefCount: 1
    m_Data: {fileID: 21300018, guid: 57bc980f7091b411a8fcac576322d01a, type: 3}
  - m_RefCount: 1
    m_Data: {fileID: 21300010, guid: 57bc980f7091b411a8fcac576322d01a, type: 3}
  - m_RefCount: 1
    m_Data: {fileID: 21300022, guid: 57bc980f7091b411a8fcac576322d01a, type: 3}
  - m_RefCount: 1
    m_Data: {fileID: 21300024, guid: 57bc980f7091b411a8fcac576322d01a, type: 3}
  - m_RefCount: 1
    m_Data: {fileID: 21300026, guid: 57bc980f7091b411a8fcac576322d01a, type: 3}
  - m_RefCount: 1
    m_Data: {fileID: 21300028, guid: 57bc980f7091b411a8fcac576322d01a, type: 3}
  - m_RefCount: 1
    m_Data: {fileID: 21300020, guid: 57bc980f7091b411a8fcac576322d01a, type: 3}
  - m_RefCount: 1
    m_Data: {fileID: 21300032, guid: 57bc980f7091b411a8fcac576322d01a, type: 3}
  - m_RefCount: 2
    m_Data: {fileID: 21300000, guid: 48bdcc7b398fc45969d7dc1b5d9b5a45, type: 3}
  - m_RefCount: 1
    m_Data: {fileID: 21300034, guid: 57bc980f7091b411a8fcac576322d01a, type: 3}
  - m_RefCount: 1
    m_Data: {fileID: 21300030, guid: 57bc980f7091b411a8fcac576322d01a, type: 3}
  - m_RefCount: 1
    m_Data: {fileID: 21300038, guid: 57bc980f7091b411a8fcac576322d01a, type: 3}
  - m_RefCount: 1
    m_Data: {fileID: 21300040, guid: 57bc980f7091b411a8fcac576322d01a, type: 3}
  - m_RefCount: 1
    m_Data: {fileID: 21300042, guid: 57bc980f7091b411a8fcac576322d01a, type: 3}
  - m_RefCount: 1
    m_Data: {fileID: 21300036, guid: 57bc980f7091b411a8fcac576322d01a, type: 3}
  - m_RefCount: 1
    m_Data: {fileID: 21300046, guid: 57bc980f7091b411a8fcac576322d01a, type: 3}
  - m_RefCount: 1
    m_Data: {fileID: 21300048, guid: 57bc980f7091b411a8fcac576322d01a, type: 3}
  - m_RefCount: 1
    m_Data: {fileID: 21300050, guid: 57bc980f7091b411a8fcac576322d01a, type: 3}
  - m_RefCount: 1
    m_Data: {fileID: 21300044, guid: 57bc980f7091b411a8fcac576322d01a, type: 3}
  - m_RefCount: 1
    m_Data: {fileID: 21300054, guid: 57bc980f7091b411a8fcac576322d01a, type: 3}
  - m_RefCount: 1
    m_Data: {fileID: 0}
  - m_RefCount: 1
    m_Data: {fileID: 21300052, guid: 57bc980f7091b411a8fcac576322d01a, type: 3}
  - m_RefCount: 1
    m_Data: {fileID: 21300058, guid: 57bc980f7091b411a8fcac576322d01a, type: 3}
  - m_RefCount: 1
    m_Data: {fileID: 21300056, guid: 57bc980f7091b411a8fcac576322d01a, type: 3}
  - m_RefCount: 1
    m_Data: {fileID: 21300062, guid: 57bc980f7091b411a8fcac576322d01a, type: 3}
  m_TileMatrixArray:
  - m_RefCount: 35
    m_Data:
      e00: 1
      e01: 0
      e02: 0
      e03: 0
      e10: 0
      e11: 1
      e12: 0
      e13: 0
      e20: 0
      e21: 0
      e22: 1
      e23: 0
      e30: 0
      e31: 0
      e32: 0
      e33: 1
  m_TileColorArray:
  - m_RefCount: 34
    m_Data: {r: 1, g: 1, b: 1, a: 1}
  - m_RefCount: 0
    m_Data: {r: 0.8784461, g: 0.39003626, b: 0.39109522, a: 1}
  - m_RefCount: 0
    m_Data: {r: 0.90333164, g: 0.4200422, b: 0.5134248, a: 1}
  - m_RefCount: 1
    m_Data: {r: 0.9373884, g: 0.58927, b: 0.6035519, a: 1}
  m_AnimationFrameRate: 1
  m_Color: {r: 1, g: 1, b: 1, a: 1}
  m_Origin: {x: -2, y: -6, z: 0}
  m_Size: {x: 6, y: 7, z: 1}
  m_TileAnchor: {x: 0.5, y: 0.5, z: 0}
  m_TileOrientation: 0
  m_TileOrientationMatrix:
    e00: 1
    e01: 0
    e02: 0
    e03: 0
    e10: 0
    e11: 1
    e12: 0
    e13: 0
    e20: 0
    e21: 0
    e22: 1
    e23: 0
    e30: 0
    e31: 0
    e32: 0
    e33: 1
